{
	"info": {
		"_postman_id": "986c48c8-8802-408d-9ed3-c43fe5782fea",
		"name": "Controller routing",
		"schema": "https://schema.getpostman.com/json/collection/v2.1.0/collection.json",
		"_exporter_id": "13288034"
	},
	"item": [
		{
			"name": "get all books",
			"event": [
				{
					"listen": "test",
					"script": {
						"exec": [
							"pm.test(\"Response status code is 200\", function () {",
							"  pm.response.to.have.status(200);",
							"});",
							"",
							"",
							"pm.test(\"Response content type is application/json\", function () {",
							"  pm.expect(pm.response.headers.get(\"Content-Type\")).to.include(\"application/json\");",
							"});",
							"",
							"",
							"pm.test(\"Response is an array with at least one element\", function () {",
							"  const responseData = pm.response.json();",
							"  ",
							"  pm.expect(responseData).to.be.an('array').and.to.have.lengthOf.at.least(1);",
							"});",
							"",
							"",
							"pm.test(\"Validate id field is a non-negative integer\", function () {",
							"    const responseData = pm.response.json();",
							"    ",
							"    pm.expect(responseData).to.be.an('array');",
							"    ",
							"    responseData.forEach(function(book) {",
							"        pm.expect(book.id).to.be.a('number').and.to.be.at.least(0);",
							"    });",
							"});",
							"",
							"",
							"pm.test(\"Validate the 'title' field is a non-empty string\", function () {",
							"  const responseData = pm.response.json();",
							"  ",
							"  pm.expect(responseData).to.be.an('array');",
							"  ",
							"  responseData.forEach(function(book) {",
							"    pm.expect(book.title).to.be.a('string').and.to.have.lengthOf.at.least(1, \"Title should not be empty\");",
							"  });",
							"});"
						],
						"type": "text/javascript",
						"packages": {}
					}
				}
			],
			"request": {
				"method": "GET",
				"header": [],
				"url": {
					"raw": "https://localhost:5000/books",
					"protocol": "https",
					"host": [
						"localhost"
					],
					"port": "5000",
					"path": [
						"books"
					]
				}
			},
			"response": []
		},
		{
			"name": "get books by id",
			"request": {
				"method": "GET",
				"header": [],
				"url": {
					"raw": "https://localhost:5000/books/2",
					"protocol": "https",
					"host": [
						"localhost"
					],
					"port": "5000",
					"path": [
						"books",
						"2"
					]
				}
			},
			"response": []
		},
		{
			"name": "remove book by id",
			"request": {
				"method": "DELETE",
				"header": [],
				"url": {
					"raw": "https://localhost:5000/books/1",
					"protocol": "https",
					"host": [
						"localhost"
					],
					"port": "5000",
					"path": [
						"books",
						"1"
					]
				}
			},
			"response": []
		},
		{
			"name": "create new book",
			"request": {
				"method": "POST",
				"header": [],
				"body": {
					"mode": "raw",
					"raw": "{\r\n    \"Title\": \"hello world1111\",\r\n    \"Author\": \"Huy đẹp trai\"\r\n}",
					"options": {
						"raw": {
							"language": "json"
						}
					}
				},
				"url": {
					"raw": "https://localhost:5000/books/",
					"protocol": "https",
					"host": [
						"localhost"
					],
					"port": "5000",
					"path": [
						"books",
						""
					]
				}
			},
			"response": []
		},
		{
			"name": "update book by id",
			"request": {
				"method": "PUT",
				"header": [],
				"body": {
					"mode": "raw",
					"raw": "{\r\n    \"Title\": \"hello updated\",\r\n    \"Author\": \"Huy đẹp trai updated\"\r\n}",
					"options": {
						"raw": {
							"language": "json"
						}
					}
				},
				"url": {
					"raw": "https://localhost:5000/books/3",
					"protocol": "https",
					"host": [
						"localhost"
					],
					"port": "5000",
					"path": [
						"books",
						"3"
					]
				}
			},
			"response": []
		}
	]
}